<svg id="Group_6" data-name="Group 6" xmlns="http://www.w3.org/2000/svg" viewBox="0 0 38 38">
  <defs>
    <style>
      .cls-1 {
        fill: #2c96d4;
      }

      .cls-2 {
        fill: #fff;
      }
    </style>
  </defs>
  <path id="Path_62" data-name="Path 62" class="cls-1" d="M0,5A5,5,0,0,1,5,0H33a5,5,0,0,1,5,5V33a5,5,0,0,1-5,5H5a5,5,0,0,1-5-5Z"/>
  <path id="Path_63" data-name="Path 63" class="cls-2" d="M17.5,11.5a1.5,1.5,0,0,1,3,0v15a1.5,1.5,0,0,1-3,0Z"/>
  <path id="Path_64" data-name="Path 64" class="cls-2" d="M26.5,17.5a1.5,1.5,0,0,1,0,3h-15a1.5,1.5,0,0,1,0-3Z"/>
</svg>
