<svg xmlns="http://www.w3.org/2000/svg" viewBox="0 0 16.063 15">
  <defs>
    <style>
      .cls-1 {
        fill: #bfd4da;
      }
    </style>
  </defs>
  <path id="Path_188" data-name="Path 188" class="cls-1" d="M15.863,6.532,9.4.1a.322.322,0,0,0-.552.217V4.331A9.58,9.58,0,0,0,0,13.869c0,.3.05.8.067,1.084a.053.053,0,0,0,.1.017A9.609,9.609,0,0,1,8.852,9.5v4.219a.322.322,0,0,0,.552.217L15.863,7.5A.683.683,0,0,0,15.863,6.532Z"/>
</svg>
