<svg xmlns="http://www.w3.org/2000/svg" viewBox="0 0 24.46 28.174">
  <defs>
    <style>
      .cls-1 {
        fill: #a4d4d5;
      }

      .cls-2 {
        fill: #2a5e87;
      }

      .cls-3 {
        fill: #34afd5;
      }

      .cls-4 {
        fill: #64bfd4;
      }

      .cls-5 {
        fill: #368dc4;
      }
    </style>
  </defs>
  <g id="Group_9" data-name="Group 9" transform="translate(-0.27 -0.043)">
    <path id="Path_71" data-name="Path 71" class="cls-1" d="M1.2,1.466a.394.394,0,0,0-.093.134.645.645,0,0,0-.046.179,1.192,1.192,0,0,0-.011.124c0,.025,0,.052,0,.079,0,.127,0,.273,0,.437v11.62l.889-1.047A20.376,20.376,0,0,0,6.994,1.276H2.06A1.66,1.66,0,0,0,1.3,1.4.443.443,0,0,0,1.2,1.466Z"/>
    <path id="Path_72" data-name="Path 72" class="cls-2" d="M1.055,14.353v10.41c0,1.011,0,1.28.517,1.352a6.47,6.47,0,0,0,.794.027H6.885A19.358,19.358,0,0,0,1.943,15.4Z"/>
    <path id="Path_73" data-name="Path 73" class="cls-3" d="M2.931,12.993A20.441,20.441,0,0,0,7.669,1.276c.019-.245.031-.489.045-.736a.473.473,0,0,1,.4-.491c-.56.081-1.073.205-1.1.7-.007.175-.018.35-.031.524a20.38,20.38,0,0,1-5.05,11.716l-.889,1.047V2.419c0-.123,0-.236,0-.338q0-.051,0-.1c0-.027,0-.054,0-.079,0-.043.005-.085.011-.124A.659.659,0,0,1,1.11,1.6a.471.471,0,0,1,.025-.049A.411.411,0,0,1,1.2,1.466.455.455,0,0,1,1.3,1.4h0l-.743.44a.76.76,0,0,0-.267.428c-.046.263,0,11.686,0,11.686V24.571a1.542,1.542,0,0,0,1.268,1.544h.013c-.4-.056-.492-.233-.512-.789,0-.023,0-.045,0-.069,0-.047,0-.1,0-.149,0-.1,0-.219,0-.345V14.353L1.942,15.4A19.354,19.354,0,0,1,6.884,26.142c.037.354.063.712.079,1.076a.9.9,0,0,0,.385.718,2.25,2.25,0,0,0,.823.281l-.236-.073a.486.486,0,0,1-.222-.427q-.034-.8-.127-1.574a20.058,20.058,0,0,0-3.019-8.526A20.292,20.292,0,0,0,2.929,15.4L1.907,14.2l.329-.387Z"/>
    <path id="Path_74" data-name="Path 74" class="cls-4" d="M7.714.542A20.519,20.519,0,0,1,2.93,12.994L1.908,14.2H20.036A23.481,23.481,0,0,0,24.729.527c0-.344-.1-.483-.422-.483H8.171A.473.473,0,0,0,7.714.542Z"/>
    <path id="Path_75" data-name="Path 75" class="cls-5" d="M7.714,27.719A20.141,20.141,0,0,0,2.93,15.4L1.908,14.2H20.036a23.079,23.079,0,0,1,4.693,13.536c0,.345-.1.483-.422.483H8.171A.474.474,0,0,1,7.714,27.719Z"/>
  </g>
</svg>
