<svg xmlns="http://www.w3.org/2000/svg" viewBox="0 0 17 15">
  <defs>
    <style>
      .cls-1 {
        fill: #bfd4da;
      }
    </style>
  </defs>
  <path id="Path_192" data-name="Path 192" class="cls-1" d="M1.451,8.54l6.632,6.293A.581.581,0,0,0,8.507,15a.646.646,0,0,0,.424-.167L15.563,8.54A4.989,4.989,0,0,0,17,4.994a5.068,5.068,0,0,0-1.437-3.546A4.294,4.294,0,0,0,12.45.186,5.594,5.594,0,0,0,8.562,1.838c-.018,0-.018.019-.037.019s-.018,0-.037-.019A5.7,5.7,0,0,0,4.988,0,5,5,0,0,0,1.451,1.448,5.058,5.058,0,0,0,1.451,8.54Z"/>
</svg>
