<svg xmlns="http://www.w3.org/2000/svg" viewBox="0 0 23 15">
  <defs>
    <style>
      .cls-1 {
        fill: #bfd4da;
        fill-rule: evenodd;
      }
    </style>
  </defs>
  <path id="Path_190" data-name="Path 190" class="cls-1" d="M11.5,15C5.146,15,0,7.5,0,7.5S5.146,0,11.5,0,23,7.5,23,7.5,17.854,15,11.5,15Zm0-12.191A4.756,4.756,0,0,0,6.7,7.5a4.8,4.8,0,0,0,9.6,0A4.756,4.756,0,0,0,11.5,2.809Zm0,7.5A2.851,2.851,0,0,1,8.625,7.5a2.876,2.876,0,0,1,5.75,0A2.851,2.851,0,0,1,11.5,10.309Z"/>
</svg>
