<svg xmlns="http://www.w3.org/2000/svg" viewBox="0 0 31.613 31.999">
  <defs>
    <style>
      .cls-1 {
        fill: #afafaf;
      }

      .cls-2 {
        fill: #fff;
      }

      .cls-3 {
        fill: #aab2bd;
      }
    </style>
  </defs>
  <g id="Group_6" data-name="Group 6" transform="translate(-0.387 0)">
    <path id="Path_63" data-name="Path 63" class="cls-1" d="M32,16A15.9,15.9,0,0,0,16.194,0,15.9,15.9,0,0,0,.387,16,15.905,15.905,0,0,0,16.194,32,15.905,15.905,0,0,0,32,16Z"/>
    <path id="Path_64" data-name="Path 64" class="cls-2" d="M32,16A15.9,15.9,0,0,0,16.194,0,15.9,15.9,0,0,0,.387,16,15.905,15.905,0,0,0,16.194,32,15.905,15.905,0,0,0,32,16Z"/>
    <path id="Path_65" data-name="Path 65" class="cls-3" d="M20.234,21.905h-8.08A3.938,3.938,0,0,1,8.24,17.944V14.059A3.938,3.938,0,0,1,12.154,10.1h8.08a3.938,3.938,0,0,1,3.914,3.962v3.885A3.938,3.938,0,0,1,20.234,21.905Z"/>
    <path id="Path_66" data-name="Path 66" class="cls-2" d="M19.426,16.037l-5.312,2.9a.266.266,0,0,1-.393-.237l0-5.833a.266.266,0,0,1,.394-.237l5.315,2.928A.271.271,0,0,1,19.426,16.037Z"/>
  </g>
</svg>
